/Users/user/webgoat_origin/WebGoat/webgoat-lessons/http-basics/src/main/java/org/owasp/webgoat/http_basics/HttpBasicsQuiz.java
/Users/user/webgoat_origin/WebGoat/webgoat-lessons/http-basics/src/main/java/org/owasp/webgoat/http_basics/HttpBasics.java
/Users/user/webgoat_origin/WebGoat/webgoat-lessons/http-basics/src/main/java/org/owasp/webgoat/http_basics/HttpBasicsLesson.java
