/Users/user/webgoat_origin/WebGoat/webgoat-lessons/missing-function-ac/src/test/java/org/owasp/webgoat/missing_ac/DisplayUserTest.java
/Users/user/webgoat_origin/WebGoat/webgoat-lessons/missing-function-ac/src/test/java/org/owasp/webgoat/missing_ac/MissingFunctionYourHashTest.java
/Users/user/webgoat_origin/WebGoat/webgoat-lessons/missing-function-ac/src/test/java/org/owasp/webgoat/missing_ac/MissingFunctionACUsersTest.java
/Users/user/webgoat_origin/WebGoat/webgoat-lessons/missing-function-ac/src/test/java/org/owasp/webgoat/missing_ac/MissingFunctionACHiddenMenusTest.java
